Mod5Wk2_Peer
…
Calculate and report the mean and median of the total number of steps taken per day

#sets the data_no_NA$steps variable as numeric
data_no_NA$steps <- as.numeric(data_no_NA$steps)
#creates a new table  from the data_no_NA data.table that finds the median and average steps grouped by date using dplyr
mean_steps_table <- data_no_NA %>% group_by(date) %>% summarise(mean(steps), median(steps))

## `summarise()` ungrouping output (override with `.groups` argument)

colnames(mean_steps_table)[2] <- "MeanSteps"
colnames(mean_steps_table)[3] <- "MedianSteps"
mean_steps_table 

## # A tibble: 53 x 3
##    date       MeanSteps MedianSteps
##    <date>         <dbl>       <dbl>
##  1 2012-10-02     0.438           0
##  2 2012-10-03    39.4             0
##  3 2012-10-04    42.1             0
##  4 2012-10-05    46.2             0
##  5 2012-10-06    53.5             0
##  6 2012-10-07    38.2             0
##  7 2012-10-09    44.5             0
##  8 2012-10-10    34.4             0
##  9 2012-10-11    35.8             0
## 10 2012-10-12    60.4             0
## # ... with 43 more rows
…
Which 5-minute interval, on average across all the days in the dataset, contains the maximum number of steps?

#creates a new table that shows (sorted_avg_daily_activity_pattern) sorted by MeanStep in decreasing order 
sorted_avg_daily_activity_pattern <- avg_daily_activity_pattern[order(-avg_daily_activity_pattern$MeanSteps),]
sorted_avg_daily_activity_pattern

## # A tibble: 288 x 2
##    interval MeanSteps
##       <int>     <dbl>
##  1      835      206.
##  2      840      196.
##  3      850      183.
##  4      845      180.
##  5      830      177.
##  6      820      171.
##  7      855      167.
##  8      815      158.
##  9      825      155.
## 10      900      143.
## # ... with 278 more rows
…
Do these values differ from the estimates from the first part of the assignment? What is the impact of imputing missing data on the estimates of the total daily number of steps?

#sets the data_no_NA$steps variable as numeric
data_noZ$steps <- as.numeric(data_noZ$steps)
#creates a new table  from the data_no_NA data.table that finds the median and average steps grouped by date using dplyr
mean_steps_table_noZ <- data_noZ %>% group_by(date) %>% summarise(mean(steps), median(steps))

## `summarise()` ungrouping output (override with `.groups` argument)

colnames(mean_steps_table_noZ)[2] <- "MeanSteps"
colnames(mean_steps_table_noZ)[3] <- "MedianSteps"
mean_steps_table_noZ 

## # A tibble: 61 x 3
##    date       MeanSteps MedianSteps
##    <date>         <dbl>       <dbl>
##  1 2012-10-01     0               0
##  2 2012-10-02     0.438           0
##  3 2012-10-03    39.4             0
##  4 2012-10-04    42.1             0
##  5 2012-10-05    46.2             0
##  6 2012-10-06    53.5             0
##  7 2012-10-07    38.2             0
##  8 2012-10-08     0               0
##  9 2012-10-09    44.5             0
## 10 2012-10-10    34.4             0
## # ... with 51 more rows
…
